chr - son1 1 0 609 chr13
chr - son2 2 0 626 chr14
chr - son3 3 0 607 chr13
chr - son4 4 0 583 chr13
chr - son5 5 0 618 chr12
chr - son6 6 0 610 chr12
chr - son7 7 0 579 chr14
chr - son8 8 0 642 chr12
chr - son9 9 0 617 chr16
chr - son10 10 0 617 chr13
chr - son11 11 0 676 chr16
chr - son12 12 0 622 chr16
chr - son13 13 0 602 chr12
chr - son14 14 0 588 chr15
chr - son15 15 0 614 chr12
chr - son16 16 0 597 chr14
chr - son17 17 0 642 chr15
chr - son18 18 0 621 chr13
chr - son19 19 0 627 chr16
chr - son20 20 0 644 chr16
chr - son21 21 0 611 chr14
chr - son22 22 0 592 chr13
chr - son23 23 0 618 chr15
chr - son24 24 0 639 chr13
chr - son25 25 0 584 chr16
chr - son26 26 0 599 chr12
chr - son27 27 0 590 chr14
chr - son28 28 0 628 chr15
chr - son29 29 0 632 chr15
chr - son30 30 0 612 chr15
chr - son31 31 0 598 chr12
chr - son32 32 0 628 chr13
chr - son33 33 0 612 chr12
chr - son34 34 0 632 chr14
chr - son35 35 0 585 chr13
chr - son36 36 0 596 chr15
chr - son37 37 0 582 chr14
chr - son38 38 0 615 chr16
chr - son39 39 0 613 chr14
chr - son40 40 0 633 chr16
chr - son41 41 0 605 chr15
chr - son42 42 0 625 chr13
chr - son43 43 0 641 chr16
chr - son44 44 0 626 chr14
chr - son45 45 0 594 chr13
chr - son46 46 0 606 chr15
chr - son47 47 0 625 chr16
chr - son48 48 0 601 chr13
chr - son49 49 0 604 chr15
chr - son50 50 0 600 chr15
chr - son51 51 0 623 chr16
chr - son52 52 0 601 chr13
chr - son53 53 0 578 chr12
chr - son54 54 0 620 chr16
chr - son55 55 0 616 chr16
chr - son56 56 0 619 chr15
chr - son57 57 0 609 chr12
chr - son58 58 0 605 chr12
chr - son59 59 0 586 chr13
chr - son60 60 0 616 chr16
chr - son61 61 0 599 chr14
chr - son62 62 0 570 chr14
chr - son63 63 0 608 chr16
chr - son64 64 0 598 chr13
chr - son65 65 0 624 chr13
chr - son66 66 0 565 chr14
chr - son67 67 0 591 chr15
chr - son68 68 0 573 chr14
chr - son69 69 0 663 chr16
chr - son70 70 0 606 chr14
chr - son71 71 0 595 chr15
chr - son72 72 0 597 chr12
chr - son73 73 0 636 chr13
chr - son74 74 0 590 chr12
chr - son75 75 0 591 chr12
chr - son76 76 0 575 chr14
chr - son77 77 0 620 chr12
chr - son78 78 0 575 chr13
chr - son79 79 0 593 chr16
chr - son80 80 0 594 chr16
chr - son81 81 0 625 chr13
chr - son82 82 0 608 chr15
chr - son83 83 0 604 chr12
chr - son84 84 0 611 chr16
chr - son85 85 0 636 chr15
chr - son86 86 0 602 chr13
chr - son87 87 0 627 chr13
chr - son88 88 0 593 chr13
chr - son89 89 0 607 chr13
chr - son90 90 0 607 chr14
chr - son91 91 0 629 chr16
chr - son92 92 0 581 chr13
chr - son93 93 0 628 chr15
chr - son94 94 0 613 chr16
chr - son95 95 0 615 chr13
chr - son96 96 0 625 chr12
chr - son97 97 0 607 chr16
chr - son98 98 0 614 chr14
chr - son99 99 0 663 chr12
chr - son100 100 0 618 chr16
chr - son101 101 0 589 chr13
chr - son102 102 0 636 chr14
chr - son103 103 0 588 chr14
chr - son104 104 0 635 chr13
chr - son105 105 0 589 chr13
chr - son106 106 0 596 chr15
chr - son107 107 0 630 chr16
chr - son108 108 0 611 chr15
chr - son109 109 0 591 chr14
chr - son110 110 0 605 chr14
chr - son111 111 0 593 chr16
chr - son112 112 0 596 chr15
chr - son113 113 0 606 chr14
chr - son114 114 0 607 chr15
chr - son115 115 0 635 chr12
chr - son116 116 0 579 chr16
chr - son117 117 0 596 chr13
chr - son118 118 0 601 chr14
chr - son119 119 0 611 chr14
chr - son120 120 0 609 chr13
chr - son121 121 0 613 chr12
chr - son122 122 0 564 chr13
chr - son123 123 0 595 chr15
chr - son124 124 0 615 chr16
chr - son125 125 0 585 chr15
chr - son126 126 0 539 chr12
chr - son127 127 0 609 chr13
chr - son128 128 0 616 chr13
chr - son129 129 0 588 chr14
chr - son130 130 0 606 chr14
chr - son131 131 0 609 chr13
chr - son132 132 0 589 chr16
chr - son133 133 0 624 chr15
chr - son134 134 0 588 chr15
chr - son135 135 0 599 chr15
chr - son136 136 0 621 chr16
chr - son137 137 0 636 chr13
chr - son138 138 0 614 chr13
chr - son139 139 0 627 chr13
chr - son140 140 0 613 chr16
chr - son141 141 0 614 chr14
chr - son142 142 0 610 chr12
chr - son143 143 0 622 chr13
chr - son144 144 0 570 chr14
chr - son145 145 0 505 chr16
chr - son146 146 0 601 chr13
chr - son147 147 0 594 chr13
chr - son148 148 0 624 chr15
chr - son149 149 0 574 chr12
chr - son150 150 0 604 chr15
chr - son151 151 0 604 chr16
chr - son152 152 0 628 chr12
chr - son153 153 0 606 chr13
chr - son154 154 0 595 chr12
