LOCATION	AWARDS	FUNDING	Population 2014	NIH Funding per person	INSTITUTIONS	NIH Funding per institution
Alabama	74	29871204	4849377	6.16	129	231559.7209
Alaska	1	678084	736732	0.92	35	19373.82857
Arizona	44	16166293	6731484	2.4	156	103630.0833
Arkansas	9	2454373	2966369	0.83	108	22725.67593
California	997	404034827	38802500	10.41	1246	324265.5112
Colorado	142	42927651	5355866	8.02	171	251038.8947
Connecticut	173	71340991	3596677	19.84	115	620356.4435
Delaware	9	1811158	935614	1.94	23	78746
District Of Columbia	41	28902525	658893	43.87	33	875834.0909
Florida	152	60760248	19893297	3.05	439	138406.0319
Georgia	158	54263673	10097343	5.37	210	258398.4429
Hawaii	8	2471111	1419561	1.74	43	57467.69767
Idaho	1	1007868	1634464	0.62	33	30541.45455
Illinois	228	78085541	12880580	6.06	392	199197.8087
Indiana	88	29147608	6596855	4.42	175	166557.76
Iowa	56	22479675	3107126	7.23	107	210090.4206
Kansas	33	10499255	2904021	3.62	99	106053.0808
Kentucky	52	16639772	4413457	3.77	165	100847.103
Louisiana	30	11589574	4649676	2.49	174	66606.74713
Maine	9	5645324	1330089	4.24	60	94088.73333
Maryland	288	140373688	5976407	23.49	148	948470.8649
Massachusetts	658	333009832	6745408	49.37	261	1275899.739
Michigan	201	68062715	9909877	6.87	302	225373.2285
Minnesota	122	48666637	5457173	8.92	169	287968.2663
Mississippi	13	4285309	2994079	1.43	69	62105.92754
Missouri	153	60665046	6063589	10	242	250682.0083
Montana	9	1621923	1023579	1.58	54	30035.61111
Nebraska	34	11279474	1881503	5.99	68	165874.6176
Nevada	5	1698521	2839099	0.6	77	22058.71429
New Hampshire	26	12543286	1326813	9.45	43	291704.3256
New Jersey	90	30998400	8938175	3.47	207	149750.7246
New Mexico	18	4944983	2085572	2.37	61	81065.29508
New York	654	260427376	19746227	13.19	633	411417.6556
North Carolina	241	118810902	9943964	11.95	188	631972.883
North Dakota	5	1152576	739482	1.56	30	38419.2
Ohio	237	87988616	11594163	7.59	386	227949.7824
Oklahoma	15	5660098	3878051	1.46	158	35823.40506
Oregon	81	28330620	3970239	7.14	125	226644.96
Pennsylvania	438	190661223	12787209	14.91	544	350480.1893
Puerto Rico	2	1008478	3548397	0.28	161	6263.838509
Rhode Island	56	13455555	1055173	12.75	37	363663.6486
South Carolina	52	16336440	4832482	3.38	97	168416.9072
South Dakota	4	1413129	853175	1.66	33	42822.09091
Tennessee	145	55160708	6549352	8.42	191	288799.5183
Texas	338	122752410	26956958	4.55	506	242593.6957
Utah	55	20055630	2942902	6.81	60	334260.5
Vermont	18	6048678	626562	9.65	32	189021.1875
Virginia	100	30761872	8326289	3.69	222	138566.991
Washington	216	181898010	7061530	25.76	164	1109134.207
West Virginia	8	2108017	1850326	1.14	99	21293.10101
Wisconsin	146	58857410	5757564	10.22	132	445889.4697
Wyoming	1	268850	584153	0.46	17	15814.70588
