clade_separation	3
branch_thickness	0
branch_bracket_depth	0.8
branch_bracket_width	0.25
clade_marker_size	0

Branch1	clade_marker_label	A
Branch11	clade_marker_label	B
Branch21	clade_marker_label	C	
Branch37	clade_marker_label	1
Branch45	clade_marker_label	2
Branch49	clade_marker_label	3

ring_internal_separator_thickness	1	0
ring_internal_separator_thickness	2	1.0
ring_internal_separator_thickness	3	0.5
ring_internal_separator_thickness	4	0.5
ring_internal_separator_thickness	5	1.0
ring_width	1	0.5
ring_alpha	1	0
ring_height	1	0.75
ring_width	5	0.5

Branch1	ring_shape	1	v
Branch2	ring_shape	1	v
Branch3	ring_shape	1	^
Branch4	ring_shape	1	v
Branch5	ring_shape	1	^
Branch6	ring_shape	1	^
Branch7	ring_shape	1	^
Branch8	ring_shape	1	v
Branch9	ring_shape	1	^
Branch10	ring_shape	1	v
Branch11	ring_shape	1	^
Branch12	ring_shape	1	v
Branch13	ring_shape	1	v
Branch14	ring_shape	1	^
Branch15	ring_shape	1	v
Branch16	ring_shape	1	v
Branch17	ring_shape	1	^
Branch18	ring_shape	1	v
Branch19	ring_shape	1	^
Branch20	ring_shape	1	^
Branch21	ring_shape	1	^
Branch22	ring_shape	1	v
Branch23	ring_shape	1	^
Branch24	ring_shape	1	v
Branch25	ring_shape	1	v
Branch26	ring_shape	1	^
Branch27	ring_shape	1	v
Branch28	ring_shape	1	v
Branch29	ring_shape	1	^
Branch30	ring_shape	1	^
Branch31	ring_shape	1	v
Branch32	ring_shape	1	^
Branch33	ring_shape	1	v
Branch34	ring_shape	1	^
Branch35	ring_shape	1	v
Branch36	ring_shape	1	v
Branch37	ring_shape	1	v
Branch38	ring_shape	1	v
Branch39	ring_shape	1	^
Branch40	ring_shape	1	^
Branch41	ring_shape	1	^
Branch42	ring_shape	1	^
Branch43	ring_shape	1	v
Branch44	ring_shape	1	v
Branch45	ring_shape	1	v
Branch46	ring_shape	1	^
Branch47	ring_shape	1	^
Branch48	ring_shape	1	v
Branch49	ring_shape	1	^
Branch50	ring_shape	1	v
Branch51	ring_shape	1	^
Branch1	ring_alpha	2	0.423462136
Branch2	ring_alpha	2	0.328914115
Branch3	ring_alpha	2	0.699584496
Branch4	ring_alpha	2	0.914291472
Branch5	ring_alpha	2	0.777833778
Branch6	ring_alpha	2	0.594773291
Branch7	ring_alpha	2	0.444201154
Branch8	ring_alpha	2	0.851402224
Branch9	ring_alpha	2	0.445070001
Branch10	ring_alpha	2	0.436455399
Branch11	ring_alpha	2	0.570138626
Branch12	ring_alpha	2	0.331044708
Branch13	ring_alpha	2	0.134087954
Branch14	ring_alpha	2	0.959809786
Branch15	ring_alpha	2	0.322425842
Branch16	ring_alpha	2	0.631079778
Branch17	ring_alpha	2	0.099924779
Branch18	ring_alpha	2	0.029114092
Branch19	ring_alpha	2	0.291201092
Branch20	ring_alpha	2	0.298583692
Branch21	ring_alpha	2	0.053455864
Branch22	ring_alpha	2	0.087870089
Branch23	ring_alpha	2	0.914114387
Branch24	ring_alpha	2	0.161880353
Branch25	ring_alpha	2	0.73030613
Branch26	ring_alpha	2	0.334890328
Branch27	ring_alpha	2	0.218075337
Branch28	ring_alpha	2	0.447942204
Branch29	ring_alpha	2	0.143522098
Branch30	ring_alpha	2	0.324901347
Branch31	ring_alpha	2	0.721461558
Branch32	ring_alpha	2	0.603871258
Branch33	ring_alpha	2	0.536829483
Branch34	ring_alpha	2	0.75932144
Branch35	ring_alpha	2	0.904283082
Branch36	ring_alpha	2	0.253696706
Branch37	ring_alpha	2	0.82091076
Branch38	ring_alpha	2	0.783643353
Branch39	ring_alpha	2	0.781101978
Branch40	ring_alpha	2	0.597634928
Branch41	ring_alpha	2	0.63959548
Branch42	ring_alpha	2	0.326481586
Branch43	ring_alpha	2	0.486611021
Branch44	ring_alpha	2	0.757163549
Branch45	ring_alpha	2	0.899268567
Branch46	ring_alpha	2	0.895335711
Branch47	ring_alpha	2	0.272427614
Branch48	ring_alpha	2	0.710528489
Branch49	ring_alpha	2	0.24185086
Branch50	ring_alpha	2	0.089548113
Branch51	ring_alpha	2	0.005396837
Branch1	ring_color	2	#AAAA00
Branch2	ring_color	2	#AAAA00
Branch3	ring_color	2	#AAAA00
Branch4	ring_color	2	#AAAA00
Branch5	ring_color	2	#AAAA00
Branch6	ring_color	2	#AAAA00
Branch7	ring_color	2	#AAAA00
Branch8	ring_color	2	#AAAA00
Branch9	ring_color	2	#AAAA00
Branch10	ring_color	2	#AAAA00
Branch11	ring_color	2	#AAAA00
Branch12	ring_color	2	#AAAA00
Branch13	ring_color	2	#AAAA00
Branch14	ring_color	2	#AAAA00
Branch15	ring_color	2	#AAAA00
Branch16	ring_color	2	#AAAA00
Branch17	ring_color	2	#AAAA00
Branch18	ring_color	2	#AAAA00
Branch19	ring_color	2	#AAAA00
Branch20	ring_color	2	#AAAA00
Branch21	ring_color	2	#AAAA00
Branch22	ring_color	2	#AAAA00
Branch23	ring_color	2	#AAAA00
Branch24	ring_color	2	#AAAA00
Branch25	ring_color	2	#AAAA00
Branch26	ring_color	2	#AAAA00
Branch27	ring_color	2	#AAAA00
Branch28	ring_color	2	#AAAA00
Branch29	ring_color	2	#AAAA00
Branch30	ring_color	2	#AAAA00
Branch31	ring_color	2	#AAAA00
Branch32	ring_color	2	#AAAA00
Branch33	ring_color	2	#AAAA00
Branch34	ring_color	2	#AAAA00
Branch35	ring_color	2	#AAAA00
Branch36	ring_color	2	#AAAA00
Branch37	ring_color	2	#AAAA00
Branch38	ring_color	2	#AAAA00
Branch39	ring_color	2	#AAAA00
Branch40	ring_color	2	#AAAA00
Branch41	ring_color	2	#AAAA00
Branch42	ring_color	2	#AAAA00
Branch43	ring_color	2	#AAAA00
Branch44	ring_color	2	#AAAA00
Branch45	ring_color	2	#AAAA00
Branch46	ring_color	2	#AAAA00
Branch47	ring_color	2	#AAAA00
Branch48	ring_color	2	#AAAA00
Branch49	ring_color	2	#AAAA00
Branch50	ring_color	2	#AAAA00
Branch51	ring_color	2	#AAAA00
Branch1	ring_alpha	3	0.486328798
Branch2	ring_alpha	3	0.90253686
Branch3	ring_alpha	3	0.540967223
Branch4	ring_alpha	3	0.514745188
Branch5	ring_alpha	3	0.808744341
Branch6	ring_alpha	3	0.174551783
Branch7	ring_alpha	3	0.355096857
Branch8	ring_alpha	3	0.308124983
Branch9	ring_alpha	3	0.899878302
Branch10	ring_alpha	3	0.135096627
Branch11	ring_alpha	3	0.114946402
Branch12	ring_alpha	3	0.112857448
Branch13	ring_alpha	3	0.216895688
Branch14	ring_alpha	3	0.728546119
Branch15	ring_alpha	3	0.862047964
Branch16	ring_alpha	3	0.285139149
Branch17	ring_alpha	3	0.809501074
Branch18	ring_alpha	3	0.261975858
Branch19	ring_alpha	3	0.887622204
Branch20	ring_alpha	3	0.964470848
Branch21	ring_alpha	3	0.005031109
Branch22	ring_alpha	3	0.255498806
Branch23	ring_alpha	3	0.617424889
Branch24	ring_alpha	3	0.378606726
Branch25	ring_alpha	3	0.99791988
Branch26	ring_alpha	3	0.707008809
Branch27	ring_alpha	3	0.479214514
Branch28	ring_alpha	3	0.204916578
Branch29	ring_alpha	3	0.622910173
Branch30	ring_alpha	3	0.952569768
Branch31	ring_alpha	3	0.354875636
Branch32	ring_alpha	3	0.692837889
Branch33	ring_alpha	3	0.580492538
Branch34	ring_alpha	3	0.678916606
Branch35	ring_alpha	3	0.018011068
Branch36	ring_alpha	3	0.953608677
Branch37	ring_alpha	3	0.358675673
Branch38	ring_alpha	3	0.486438688
Branch39	ring_alpha	3	0.186068756
Branch40	ring_alpha	3	0.725693055
Branch41	ring_alpha	3	0.374342186
Branch42	ring_alpha	3	0.510175055
Branch43	ring_alpha	3	0.948314742
Branch44	ring_alpha	3	0.935701023
Branch45	ring_alpha	3	0.093864558
Branch46	ring_alpha	3	0.728085339
Branch47	ring_alpha	3	0.74161187
Branch48	ring_alpha	3	0.96916626
Branch49	ring_alpha	3	0.437648811
Branch50	ring_alpha	3	0.781992078
Branch51	ring_alpha	3	0.867129363
Branch1	ring_color	3	#AA00AA
Branch2	ring_color	3	#AA00AA
Branch3	ring_color	3	#AA00AA
Branch4	ring_color	3	#AA00AA
Branch5	ring_color	3	#AA00AA
Branch6	ring_color	3	#AA00AA
Branch7	ring_color	3	#AA00AA
Branch8	ring_color	3	#AA00AA
Branch9	ring_color	3	#AA00AA
Branch10	ring_color	3	#AA00AA
Branch11	ring_color	3	#AA00AA
Branch12	ring_color	3	#AA00AA
Branch13	ring_color	3	#AA00AA
Branch14	ring_color	3	#AA00AA
Branch15	ring_color	3	#AA00AA
Branch16	ring_color	3	#AA00AA
Branch17	ring_color	3	#AA00AA
Branch18	ring_color	3	#AA00AA
Branch19	ring_color	3	#AA00AA
Branch20	ring_color	3	#AA00AA
Branch21	ring_color	3	#AA00AA
Branch22	ring_color	3	#AA00AA
Branch23	ring_color	3	#AA00AA
Branch24	ring_color	3	#AA00AA
Branch25	ring_color	3	#AA00AA
Branch26	ring_color	3	#AA00AA
Branch27	ring_color	3	#AA00AA
Branch28	ring_color	3	#AA00AA
Branch29	ring_color	3	#AA00AA
Branch30	ring_color	3	#AA00AA
Branch31	ring_color	3	#AA00AA
Branch32	ring_color	3	#AA00AA
Branch33	ring_color	3	#AA00AA
Branch34	ring_color	3	#AA00AA
Branch35	ring_color	3	#AA00AA
Branch36	ring_color	3	#AA00AA
Branch37	ring_color	3	#AA00AA
Branch38	ring_color	3	#AA00AA
Branch39	ring_color	3	#AA00AA
Branch40	ring_color	3	#AA00AA
Branch41	ring_color	3	#AA00AA
Branch42	ring_color	3	#AA00AA
Branch43	ring_color	3	#AA00AA
Branch44	ring_color	3	#AA00AA
Branch45	ring_color	3	#AA00AA
Branch46	ring_color	3	#AA00AA
Branch47	ring_color	3	#AA00AA
Branch48	ring_color	3	#AA00AA
Branch49	ring_color	3	#AA00AA
Branch50	ring_color	3	#AA00AA
Branch51	ring_color	3	#AA00AA
Branch1	ring_alpha	4	0.016433782
Branch2	ring_alpha	4	0.961779755
Branch3	ring_alpha	4	0.091129404
Branch4	ring_alpha	4	0.214683813
Branch5	ring_alpha	4	0.183546493
Branch6	ring_alpha	4	0.649839772
Branch7	ring_alpha	4	0.508572487
Branch8	ring_alpha	4	0.544852214
Branch9	ring_alpha	4	0.011849864
Branch10	ring_alpha	4	0.494163374
Branch11	ring_alpha	4	0.003702718
Branch12	ring_alpha	4	0.944619737
Branch13	ring_alpha	4	0.740793384
Branch14	ring_alpha	4	0.679054871
Branch15	ring_alpha	4	0.654851197
Branch16	ring_alpha	4	0.696989249
Branch17	ring_alpha	4	0.250910763
Branch18	ring_alpha	4	0.603110792
Branch19	ring_alpha	4	0.768995251
Branch20	ring_alpha	4	0.382492089
Branch21	ring_alpha	4	0.202515842
Branch22	ring_alpha	4	0.604966299
Branch23	ring_alpha	4	0.271415944
Branch24	ring_alpha	4	0.729366062
Branch25	ring_alpha	4	0.281874921
Branch26	ring_alpha	4	0.986149233
Branch27	ring_alpha	4	0.086842604
Branch28	ring_alpha	4	0.581618565
Branch29	ring_alpha	4	0.587717564
Branch30	ring_alpha	4	0.520464993
Branch31	ring_alpha	4	0.689907783
Branch32	ring_alpha	4	0.43228397
Branch33	ring_alpha	4	0.713859589
Branch34	ring_alpha	4	0.918826989
Branch35	ring_alpha	4	0.04487456
Branch36	ring_alpha	4	0.702703981
Branch37	ring_alpha	4	0.365023287
Branch38	ring_alpha	4	0.738608889
Branch39	ring_alpha	4	0.905904556
Branch40	ring_alpha	4	0.252754273
Branch41	ring_alpha	4	0.483919419
Branch42	ring_alpha	4	0.652801999
Branch43	ring_alpha	4	0.726258452
Branch44	ring_alpha	4	0.833070577
Branch45	ring_alpha	4	0.645235994
Branch46	ring_alpha	4	0.470807179
Branch47	ring_alpha	4	0.77786535
Branch48	ring_alpha	4	0.006198094
Branch49	ring_alpha	4	0.652324808
Branch50	ring_alpha	4	0.580610729
Branch51	ring_alpha	4	0.243468672
Branch1	ring_color	4	#00AAAA
Branch2	ring_color	4	#00AAAA
Branch3	ring_color	4	#00AAAA
Branch4	ring_color	4	#00AAAA
Branch5	ring_color	4	#00AAAA
Branch6	ring_color	4	#00AAAA
Branch7	ring_color	4	#00AAAA
Branch8	ring_color	4	#00AAAA
Branch9	ring_color	4	#00AAAA
Branch10	ring_color	4	#00AAAA
Branch11	ring_color	4	#00AAAA
Branch12	ring_color	4	#00AAAA
Branch13	ring_color	4	#00AAAA
Branch14	ring_color	4	#00AAAA
Branch15	ring_color	4	#00AAAA
Branch16	ring_color	4	#00AAAA
Branch17	ring_color	4	#00AAAA
Branch18	ring_color	4	#00AAAA
Branch19	ring_color	4	#00AAAA
Branch20	ring_color	4	#00AAAA
Branch21	ring_color	4	#00AAAA
Branch22	ring_color	4	#00AAAA
Branch23	ring_color	4	#00AAAA
Branch24	ring_color	4	#00AAAA
Branch25	ring_color	4	#00AAAA
Branch26	ring_color	4	#00AAAA
Branch27	ring_color	4	#00AAAA
Branch28	ring_color	4	#00AAAA
Branch29	ring_color	4	#00AAAA
Branch30	ring_color	4	#00AAAA
Branch31	ring_color	4	#00AAAA
Branch32	ring_color	4	#00AAAA
Branch33	ring_color	4	#00AAAA
Branch34	ring_color	4	#00AAAA
Branch35	ring_color	4	#00AAAA
Branch36	ring_color	4	#00AAAA
Branch37	ring_color	4	#00AAAA
Branch38	ring_color	4	#00AAAA
Branch39	ring_color	4	#00AAAA
Branch40	ring_color	4	#00AAAA
Branch41	ring_color	4	#00AAAA
Branch42	ring_color	4	#00AAAA
Branch43	ring_color	4	#00AAAA
Branch44	ring_color	4	#00AAAA
Branch45	ring_color	4	#00AAAA
Branch46	ring_color	4	#00AAAA
Branch47	ring_color	4	#00AAAA
Branch48	ring_color	4	#00AAAA
Branch49	ring_color	4	#00AAAA
Branch50	ring_color	4	#00AAAA
Branch51	ring_color	4	#00AAAA
Branch1	ring_height	5	2.489008547
Branch2	ring_height	5	2.556945135
Branch3	ring_height	5	1.461658192
Branch4	ring_height	5	1.521425187
Branch5	ring_height	5	0.275406475
Branch6	ring_height	5	3.964209297
Branch7	ring_height	5	0.366822247
Branch8	ring_height	5	3.113040186
Branch9	ring_height	5	3.171869204
Branch10	ring_height	5	1.032613232
Branch11	ring_height	5	2.844795801
Branch12	ring_height	5	1.977223083
Branch13	ring_height	5	2.661226841
Branch14	ring_height	5	1.432908158
Branch15	ring_height	5	1.116872882
Branch16	ring_height	5	1.085107761
Branch17	ring_height	5	2.778596147
Branch18	ring_height	5	0.554574632
Branch19	ring_height	5	1.573784838
Branch20	ring_height	5	2.700282762
Branch21	ring_height	5	1.86166458
Branch22	ring_height	5	0.024290087
Branch23	ring_height	5	3.078415606
Branch24	ring_height	5	3.465102093
Branch25	ring_height	5	1.352831419
Branch26	ring_height	5	3.92974801
Branch27	ring_height	5	2.285331142
Branch28	ring_height	5	0.818507573
Branch29	ring_height	5	0.800083345
Branch30	ring_height	5	0.978937869
Branch31	ring_height	5	0.892990894
Branch32	ring_height	5	2.525103038
Branch33	ring_height	5	1.946346428
Branch34	ring_height	5	2.5314922
Branch35	ring_height	5	0.617175346
Branch36	ring_height	5	1.493212436
Branch37	ring_height	5	0.081746947
Branch38	ring_height	5	3.260558257
Branch39	ring_height	5	2.501753698
Branch40	ring_height	5	2.664209074
Branch41	ring_height	5	1.213917319
Branch42	ring_height	5	0.920381731
Branch43	ring_height	5	3.221933784
Branch44	ring_height	5	2.597516725
Branch45	ring_height	5	0.365700208
Branch46	ring_height	5	1.34748131
Branch47	ring_height	5	0.096152411
Branch48	ring_height	5	2.023939799
Branch49	ring_height	5	1.946545605
Branch50	ring_height	5	2.752899261
Branch51	ring_height	5	2.39465498
