Author	Attribute
Laura E Barnes	MainAuthor
Todd W Bauer	MainAuthor
Stefan Bekiranov	MainAuthor
Silvia S Blemker	MainAuthor
Steven M Boker	MainAuthor
Donald E Brown	MainAuthor
Alison K Criss	MainAuthor
Chao Du	MainAuthor
Anindya Dutta	MainAuthor
Frederick H Epstein	MainAuthor
Charles R Farber	MainAuthor
Matthew S Gerber	MainAuthor
Jennifer L Guler	MainAuthor
James H Harrison	MainAuthor
Erik L Hewlett	MainAuthor
Jeffrey W Holmes	MainAuthor
Marty Humphrey	MainAuthor
Kevin Janes	MainAuthor
Karen Kafadar	MainAuthor
Peter M Kasson	MainAuthor
Melissa M Kendall	MainAuthor
Thomas P Loughran	MainAuthor
Gary K Owens	MainAuthor
Jason A Papin	MainAuthor
Shayn M Peirce	MainAuthor
William A Petri	MainAuthor
Yanjun Qi	MainAuthor
Aakrosh Ratan	MainAuthor
Stephen S Rich	MainAuthor
Jeffrey J Saucerman	MainAuthor
Kevin Skadron	MainAuthor
Hongning Wang	MainAuthor
Martin Wu	MainAuthor
Tingting Zhang	MainAuthor
sca1_2	CommonCoAuthor
sca1_7	CommonCoAuthor
sca1_8	CommonCoAuthor
sca1_9	CommonCoAuthor
sca1_15	CommonCoAuthor
sca1_20	CommonCoAuthor
sca1_22	CommonCoAuthor
sca1_23	CommonCoAuthor
sca1_25	CommonCoAuthor
sca1_26	CommonCoAuthor
sca1_28	CommonCoAuthor
sca1_31	CommonCoAuthor
sca1_33	CommonCoAuthor
sca2_7	CommonCoAuthor
sca2_8	CommonCoAuthor
sca2_10	CommonCoAuthor
sca2_15	CommonCoAuthor
sca2_19	CommonCoAuthor
sca2_21	CommonCoAuthor
sca2_22	CommonCoAuthor
sca2_23	CommonCoAuthor
sca2_24	CommonCoAuthor
sca2_25	CommonCoAuthor
sca2_27	CommonCoAuthor
sca2_28	CommonCoAuthor
sca2_29	CommonCoAuthor
sca2_31	CommonCoAuthor
sca2_33	CommonCoAuthor
sca3_9	CommonCoAuthor
sca3_15	CommonCoAuthor
sca3_24	CommonCoAuthor
sca3_28	CommonCoAuthor
sca4_7	CommonCoAuthor
sca4_8	CommonCoAuthor
sca4_28	CommonCoAuthor
sca4_31	CommonCoAuthor
sca4_33	CommonCoAuthor
sca6_14	CommonCoAuthor
sca6_15	CommonCoAuthor
sca6_19	CommonCoAuthor
sca6_23	CommonCoAuthor
sca6_25	CommonCoAuthor
sca6_29	CommonCoAuthor
sca7_8	CommonCoAuthor
sca7_9	CommonCoAuthor
sca7_10	CommonCoAuthor
sca7_15	CommonCoAuthor
sca7_17	CommonCoAuthor
sca7_18	CommonCoAuthor
sca7_20	CommonCoAuthor
sca7_21	CommonCoAuthor
sca7_22	CommonCoAuthor
sca7_25	CommonCoAuthor
sca7_26	CommonCoAuthor
sca7_27	CommonCoAuthor
sca7_28	CommonCoAuthor
sca7_29	CommonCoAuthor
sca7_31	CommonCoAuthor
sca7_32	CommonCoAuthor
sca7_33	CommonCoAuthor
sca8_9	CommonCoAuthor
sca8_10	CommonCoAuthor
sca8_14	CommonCoAuthor
sca8_15	CommonCoAuthor
sca8_18	CommonCoAuthor
sca8_21	CommonCoAuthor
sca8_22	CommonCoAuthor
sca8_23	CommonCoAuthor
sca8_24	CommonCoAuthor
sca8_25	CommonCoAuthor
sca8_26	CommonCoAuthor
sca8_27	CommonCoAuthor
sca8_28	CommonCoAuthor
sca8_29	CommonCoAuthor
sca8_30	CommonCoAuthor
sca8_31	CommonCoAuthor
sca8_32	CommonCoAuthor
sca8_33	CommonCoAuthor
sca9_10	CommonCoAuthor
sca9_15	CommonCoAuthor
sca9_21	CommonCoAuthor
sca9_22	CommonCoAuthor
sca9_23	CommonCoAuthor
sca9_24	CommonCoAuthor
sca9_25	CommonCoAuthor
sca9_27	CommonCoAuthor
sca9_28	CommonCoAuthor
sca9_29	CommonCoAuthor
sca9_31	CommonCoAuthor
sca9_32	CommonCoAuthor
sca9_33	CommonCoAuthor
sca10_14	CommonCoAuthor
sca10_15	CommonCoAuthor
sca10_17	CommonCoAuthor
sca10_21	CommonCoAuthor
sca10_22	CommonCoAuthor
sca10_23	CommonCoAuthor
sca10_24	CommonCoAuthor
sca10_25	CommonCoAuthor
sca10_26	CommonCoAuthor
sca10_27	CommonCoAuthor
sca10_28	CommonCoAuthor
sca10_29	CommonCoAuthor
sca10_31	CommonCoAuthor
sca10_32	CommonCoAuthor
sca10_33	CommonCoAuthor
sca12_28	CommonCoAuthor
sca13_28	CommonCoAuthor
sca14_20	CommonCoAuthor
sca14_23	CommonCoAuthor
sca14_24	CommonCoAuthor
sca14_25	CommonCoAuthor
sca14_29	CommonCoAuthor
sca14_32	CommonCoAuthor
sca14_33	CommonCoAuthor
sca15_19	CommonCoAuthor
sca15_22	CommonCoAuthor
sca15_23	CommonCoAuthor
sca15_24	CommonCoAuthor
sca15_25	CommonCoAuthor
sca15_28	CommonCoAuthor
sca15_29	CommonCoAuthor
sca15_32	CommonCoAuthor
sca15_33	CommonCoAuthor
sca17_21	CommonCoAuthor
sca17_22	CommonCoAuthor
sca17_28	CommonCoAuthor
sca17_29	CommonCoAuthor
sca17_31	CommonCoAuthor
sca17_33	CommonCoAuthor
sca18_21	CommonCoAuthor
sca18_28	CommonCoAuthor
sca18_32	CommonCoAuthor
sca18_33	CommonCoAuthor
sca19_25	CommonCoAuthor
sca19_29	CommonCoAuthor
sca20_21	CommonCoAuthor
sca20_22	CommonCoAuthor
sca20_25	CommonCoAuthor
sca20_28	CommonCoAuthor
sca20_31	CommonCoAuthor
sca20_33	CommonCoAuthor
sca21_22	CommonCoAuthor
sca21_23	CommonCoAuthor
sca21_25	CommonCoAuthor
sca21_27	CommonCoAuthor
sca21_28	CommonCoAuthor
sca21_29	CommonCoAuthor
sca21_31	CommonCoAuthor
sca21_32	CommonCoAuthor
sca21_33	CommonCoAuthor
sca22_23	CommonCoAuthor
sca22_24	CommonCoAuthor
sca22_25	CommonCoAuthor
sca22_26	CommonCoAuthor
sca22_27	CommonCoAuthor
sca22_28	CommonCoAuthor
sca22_29	CommonCoAuthor
sca22_31	CommonCoAuthor
sca22_33	CommonCoAuthor
sca23_24	CommonCoAuthor
sca23_25	CommonCoAuthor
sca23_27	CommonCoAuthor
sca23_28	CommonCoAuthor
sca23_29	CommonCoAuthor
sca23_31	CommonCoAuthor
sca23_32	CommonCoAuthor
sca23_33	CommonCoAuthor
sca24_28	CommonCoAuthor
sca24_29	CommonCoAuthor
sca24_33	CommonCoAuthor
sca25_26	CommonCoAuthor
sca25_27	CommonCoAuthor
sca25_28	CommonCoAuthor
sca25_29	CommonCoAuthor
sca25_31	CommonCoAuthor
sca25_32	CommonCoAuthor
sca25_33	CommonCoAuthor
sca26_28	CommonCoAuthor
sca26_31	CommonCoAuthor
sca26_32	CommonCoAuthor
sca26_33	CommonCoAuthor
sca27_28	CommonCoAuthor
sca27_31	CommonCoAuthor
sca27_32	CommonCoAuthor
sca27_33	CommonCoAuthor
sca28_29	CommonCoAuthor
sca28_30	CommonCoAuthor
sca28_31	CommonCoAuthor
sca28_32	CommonCoAuthor
sca28_33	CommonCoAuthor
sca29_31	CommonCoAuthor
sca29_32	CommonCoAuthor
sca29_33	CommonCoAuthor
sca31_32	CommonCoAuthor
sca31_33	CommonCoAuthor
sca32_33	CommonCoAuthor
